/* XPM */
static const char *const next_xpm[] = {
/* columns rows colors chars-per-pixel */
"24 24 12 1 ",
"  c None",
". c #27DF7F",
"X c #25E07F",
"o c #26E07E",
"O c #26E07F",
"+ c #27E07F",
"@ c #26E17F",
"# c #25DF80",
"$ c #26DF80",
"% c #26E080",
"& c #27E080",
"* c #26E180",
/* pixels */
"                        ",
"                        ",
"     *O                 ",
"    OOOO*               ",
"    OOOOOOO             ",
"   $OOOOOOOO.           ",
"   $OOOOOOOOOO          ",
"   $OOOOOOOOOOO$        ",
"   $OOOOOOOOOOOOO*      ",
"   $OOOOOOOOOOOOOOOO    ",
"   $OOOOOOOOOOOOOOOOO   ",
"   .OOOOOOOOOOOOOOOOOO  ",
"   $OOOOOOOOOOOOOOOO.*  ",
"   $OOOOOOOOOOOOOOOOO   ",
"   $OOOOOOOOOOOOOOOO    ",
"   $OOOOOOOOOOOO.*      ",
"   $OOOOOOOOOOO$        ",
"   $OOOOOOOOOO          ",
"   $OOOOOOOO.           ",
"    OOOOOO+             ",
"    OOOO*               ",
"     OO                 ",
"                        ",
"                        "
};
